<?xml version="1.0" standalone="no"?>
<!DOCTYPE svg PUBLIC "-//W3C//DTD SVG 1.1//EN" "http://www.w3.org/Graphics/SVG/1.1/DTD/svg11.dtd" >
<svg xmlns="http://www.w3.org/2000/svg">
<metadata>Generated by IcoMoon</metadata>
<defs>
<font id="icomoon" horiz-adv-x="1024">
<font-face units-per-em="1024" ascent="960" descent="-64" />
<missing-glyph horiz-adv-x="1024" />
<glyph unicode="&#x20;" horiz-adv-x="512" d="" />
<glyph unicode="&#xe900;" glyph-name="close1" d="M552.256 448l463.584 463.136c5.12 5.12 8.352 12.256 8.352 20.096 0 15.68-12.736 28.416-28.512 28.416-7.808 0-14.912-3.2-20.064-8.32l-463.616-463.168-463.616 463.168c-5.152 5.12-12.256 8.32-20.128 8.32-15.744 0-28.448-12.704-28.448-28.416 0-7.84 3.168-14.976 8.352-20.128l463.584-463.104-463.584-463.2c-5.184-5.056-8.352-12.192-8.352-20.064 0-15.68 12.704-28.384 28.448-28.384 7.872 0 14.976 3.2 20.128 8.32l463.616 463.136 463.616-463.136c5.152-5.12 12.256-8.32 20.064-8.32 15.744 0 28.512 12.672 28.512 28.384 0 7.872-3.232 15.008-8.352 20.064l-463.584 463.2z" />
<glyph unicode="&#xe901;" glyph-name="close2" d="M947.36-63.616c-20.576 0-39.808 7.968-54.368 22.496l-380.992 380.576-381.024-380.576c-14.4-14.496-33.76-22.496-54.304-22.496-42.368 0-76.832 34.4-76.832 76.736 0 20.608 8.064 39.904 22.656 54.368l380.832 380.512-381.024 380.608c-14.496 14.464-22.496 33.76-22.496 54.272 0 42.336 34.464 76.736 76.832 76.736 20.576 0 39.904-8.032 54.4-22.624l380.96-380.48 380.992 380.608c14.56 14.496 33.824 22.496 54.368 22.496 42.304 0 76.8-34.432 76.8-76.736 0-20.608-8.064-39.936-22.688-54.4l-380.832-380.48 381.056-380.672c14.432-14.304 22.496-33.632 22.496-54.208 0-42.336-34.496-76.736-76.832-76.736z" />
<glyph unicode="&#xe902;" glyph-name="close3" d="M844.48-64.192c-47.68 0-92.64 18.496-126.496 52.128l-205.984 206.048-205.408-205.568c-33.952-33.952-79.040-52.64-127.040-52.64-48.032 0-93.216 18.752-127.136 52.768s-52.544 79.2-52.384 127.264c-0.288 46.88 18.4 92.32 52.576 126.464l205.504 205.728-205.536 205.664c-33.632 33.632-52.288 78.368-52.576 126.048 0.288 100.128 80.8 180.48 179.488 180.48 48.16 0 93.376-18.752 127.296-52.832l205.216-205.376 205.408 205.536c34.208 34.048 79.2 52.64 126.944 52.64 48.16 0 93.28-18.72 127.232-52.736 33.792-33.856 52.416-78.88 52.416-126.784 0-48.224-18.88-93.472-53.12-127.456l-204.992-205.152 205.568-205.728c34.4-35.296 52.544-79.84 52.544-126.944 0-98.976-80.544-179.552-179.52-179.552z" />
</font></defs></svg>